{
  "$schema": "http://json-schema.org/schema",
  "$id": "nest-swagger",
  "title": "Swagger",
  "type": "object",
  "properties": {
    "project": {
      "type": "string",
      "description": "The name of the project.",
      "$default": {
        "$source": "projectName"
      },
      "x-prompt": "Which project should be initialized?"
    }
  },
  "required": [
    "project"
  ]
}
