{
  "schematics": {
    "ng-add": {
      "description": "Setup the package @rxap/nest-firebase for the workspace.",
      "factory": "./src/schematics/ng-add/index",
      "schema": "./src/schematics/ng-add/schema.json"
    }
  },
  "$schema": "../../node_modules/@angular-devkit/schematics/collection-schema.json"
}